C:\projects\tictactoe\TicTacToe\src\main\java\com\fornof\tictactoe\Server.java
C:\projects\tictactoe\TicTacToe\src\main\java\com\fornof\tictactoe\Main.java
C:\projects\tictactoe\TicTacToe\src\main\java\com\fornof\tictactoe\Game.java
C:\projects\tictactoe\TicTacToe\src\main\java\com\fornof\tictactoe\Person.java
C:\projects\tictactoe\TicTacToe\src\main\java\com\fornof\tictactoe\Board.java
